%YAML 1.1
%TAG !u! tag:unity3d.com,2011:
--- !u!1 &969083422590412831
GameObject:
  m_ObjectHideFlags: 0
  m_CorrespondingSourceObject: {fileID: 0}
  m_PrefabInstance: {fileID: 0}
  m_PrefabAsset: {fileID: 0}
  serializedVersion: 6
  m_Component:
  - component: {fileID: 6019787905023332965}
  - component: {fileID: 933014316079551042}
  m_Layer: 0
  m_Name: BasicBulletWeapon
  m_TagString: Untagged
  m_Icon: {fileID: 0}
  m_NavMeshLayer: 0
  m_StaticEditorFlags: 0
  m_IsActive: 1
--- !u!4 &6019787905023332965
Transform:
  m_ObjectHideFlags: 0
  m_CorrespondingSourceObject: {fileID: 0}
  m_PrefabInstance: {fileID: 0}
  m_PrefabAsset: {fileID: 0}
  m_GameObject: {fileID: 969083422590412831}
  m_LocalRotation: {x: 0, y: 0, z: 0, w: 1}
  m_LocalPosition: {x: 0, y: 0, z: 0}
  m_LocalScale: {x: 1, y: 1, z: 1}
  m_Children: []
  m_Father: {fileID: 0}
  m_RootOrder: 0
  m_LocalEulerAnglesHint: {x: 0, y: 0, z: 0}
--- !u!114 &933014316079551042
MonoBehaviour:
  m_ObjectHideFlags: 0
  m_CorrespondingSourceObject: {fileID: 0}
  m_PrefabInstance: {fileID: 0}
  m_PrefabAsset: {fileID: 0}
  m_GameObject: {fileID: 969083422590412831}
  m_Enabled: 1
  m_EditorHideFlags: 0
  m_Script: {fileID: 11500000, guid: 12b9900e806698943a8f32732ca494b5, type: 3}
  m_Name: 
  m_EditorClassIdentifier: 
  FireRate: 1
  ShootSound: {fileID: 8300000, guid: 19fac8b787dd8194cab8e0c169030e0b, type: 3}
  Icon: {fileID: 3738872799463376947, guid: 03eef1bbe9443094a94a4886e7fc1337, type: 3}
  BulletPrefab: {fileID: 8846171995049130248, guid: 756e4a58803f1b54ab111b343bb45464,
    type: 3}
